<svg width="350" height="55" viewBox="0 0 350 55" fill="none" xmlns="http://www.w3.org/2000/svg">
<g>
<path d="M7.66622 17.051C7.23399 16.9621 6.71139 16.8521 6.19894 16.7331L5.43807 16.5564L5.08321 17.2522C5.06224 17.2934 5.04536 17.3318 5.03141 17.3674C5.02821 17.3755 5.02523 17.3834 5.02252 17.3907L4.57886 18.2607L5.50099 18.7035C5.98834 18.9376 6.48036 19.1715 6.97029 19.4044L6.97096 19.4047C7.46172 19.638 7.95039 19.8703 8.43381 20.1024L8.43642 20.1037C13.1458 22.3485 15.7115 25.9789 15.9136 31.0153C16.0827 35.4244 16.1008 39.8348 16.119 44.268C16.1263 46.0474 16.1336 47.8305 16.1507 49.6187L16.1507 49.6237C16.1637 50.517 16.1595 51.4024 16.1551 52.3156C16.1547 52.3985 16.1543 52.4816 16.154 52.565C15.7577 52.3919 15.4164 52.0996 15.0753 51.7001L15.0715 51.6957C13.8448 50.2758 13.3725 48.532 13.3725 46.5781L13.3725 46.5746C13.3641 44.1964 13.3665 41.8123 13.3689 39.426C13.3721 36.2398 13.3753 33.0498 13.3527 29.865C13.3522 29.3727 13.2625 28.9072 13.1715 28.5094C13.1351 28.3506 13.1007 28.2099 13.0685 28.0782C13.0116 27.8458 12.9616 27.6415 12.9202 27.4157L12.7438 26.4518L11.7766 26.6098C11.7101 26.6207 11.6496 26.6315 11.5964 26.641L11.594 26.6414C11.5388 26.6513 11.4911 26.6597 11.4398 26.6681L10.602 26.805V27.6539V27.6937V27.7336V27.7734V27.8133V27.8531V27.8929V27.9328V27.9726V28.0125V28.0523V28.0922V28.132V28.1719V28.2117V28.2516V28.2914V28.3312V28.3711V28.4109V28.4508V28.4906V28.5305V28.5703V28.6102V28.65V28.6899V28.7297V28.7696V28.8094V28.8493V28.8891V28.9289V28.9688V29.0086V29.0485V29.0883V29.1282V29.168V29.2079V29.2477V29.2876V29.3274V29.3673V29.4071V29.447V29.4868V29.5267V29.5665V29.6064V29.6462V29.6861V29.7259V29.7658V29.8056V29.8455V29.8853V29.9252V29.965V30.0049V30.0447V30.0846V30.1244V30.1643V30.2041V30.244V30.2838V30.3237V30.3635V30.4034V30.4433V30.4831V30.523V30.5628V30.6027V30.6425V30.6824V30.7222V30.7621V30.802V30.8418V30.8817V30.9215V30.9614V31.0012V31.0411V31.081V31.1208V31.1607V31.2005V31.2404V31.2802V31.3201V31.36V31.3998V31.4397V31.4796V31.5194V31.5593V31.5991V31.639V31.6789V31.7187V31.7586V31.7985V31.8383V31.8782V31.9181V31.9579V31.9978V32.0377V32.0775V32.1174V32.1573V32.1971V32.237V32.2769V32.3167V32.3566V32.3965V32.4363V32.4762V32.5161V32.5559V32.5958V32.6357V32.6756V32.7154V32.7553V32.7952V32.8351V32.8749V32.9148V32.9547V32.9946V33.0344V33.0743V33.1142V33.1541V33.194V33.2338V33.2737V33.3136V33.3535V33.3934V33.4332V33.4731V33.513V33.5529V33.5928V33.6327V33.6725V33.7124V33.7523V33.7922V33.8321V33.872V33.9119V33.9517V33.9916V34.0315V34.0714V34.1113V34.1512V34.1911V34.231V34.2709V34.3108V34.3507V34.3906V34.4305V34.4704V34.5102V34.5501V34.59V34.6299V34.6698V34.7097V34.7496V34.7895V34.8294V34.8693V34.9092V34.9492V34.9891V35.029V35.0689V35.1088V35.1487V35.1886V35.2285V35.2684V35.3083V35.3482V35.3881V35.428V35.468V35.5079V35.5478V35.5877V35.6276V35.6675V35.7074V35.7474V35.7873V35.8272V35.8671V35.907V35.9469V35.9869V36.0268V36.0667V36.1066V36.1466V36.1865V36.2264V36.2663V36.3063V36.3462V36.3861V36.4261V36.466V36.5059V36.5458V36.5858V36.6257V36.6656V36.7056V36.7455V36.7854V36.8254V36.8653V36.9053V36.9452V36.9851V37.0251V37.065V37.105V37.1449V37.1849V37.2248V37.2647V37.3047V37.3446V37.3846V37.4245V37.4645V37.5044V37.5444V37.5843V37.6243V37.6643V37.7042V37.7442V37.7841V37.8241V37.864V37.904V37.944V37.9839V38.0239V38.0638V38.1038V38.1438V38.1837V38.2237V38.2637V38.3036V38.3436V38.3836V38.4236V38.4635V38.5035V38.5435V38.5835V38.6234V38.6634V38.7034V38.7434V38.7833V38.8233V38.8633V38.9033V38.9433V38.9833V39.0232V39.0632V39.1032V39.1432V39.1832V39.2232V39.2632V39.3032V39.3432V39.3832V39.4232V39.4632V39.5032V39.5432V39.5832V39.6232V39.6632V39.7032V39.7432V39.7832V39.8232V39.8632V39.9032V39.9432V39.9832V40.0232V40.0632V40.1033V40.1433V40.1833V40.2233V40.2633V40.3033V40.3434V40.3834V40.4234V40.4634V40.5035V40.5435V40.5835V40.6235V40.6636V40.7036V40.7436V40.7837V40.8237V40.8637V40.9038V40.9438V40.9838V41.0239V41.0639V41.104V41.144V41.1841V41.2241V41.2642V41.3042V41.3443V41.3843V41.4244V41.4644V41.5045V41.5445V41.5846V41.6246V41.6647V41.7047V41.7448V41.7849V41.8249V41.865V41.9051V41.9451V41.9852V42.0253V42.0653V42.1054V42.1455V42.1856V42.2256V42.2657V42.3058V42.3459V42.386V42.426V42.4661V42.5062V42.5463V42.5864V42.6265V42.6666V42.7067V42.7468V42.7868V42.8269V42.867V42.9071V42.9472V42.9873V43.0274V43.0675V43.1076V43.1478V43.1879V43.228V43.2681V43.3082V43.3483V43.3884V43.4285V43.4687V43.5088V43.5489V43.589V43.6291V43.6693V43.7094V43.7495V43.7896V43.8298V43.8699V43.91V43.9502V43.9903V44.0304V44.0706V44.1107V44.1509V44.191V44.2311V44.2713V44.3114V44.3516V44.3917V44.4319V44.472V44.5122V44.5524V44.5925V44.6327V44.6728V44.713V44.7532V44.7933V44.8335V44.8736V44.9138V44.954V44.9942V45.0343V45.0745V45.1147V45.1549V45.195V45.2352V45.2754V45.3156V45.3558V45.396V45.4362V45.4763V45.5165V45.5567V45.5969V45.6371V45.6773V45.7175V45.7577V45.7979V45.8381V45.8783V45.9185V45.9588V45.999V46.0392V46.0794V46.1196V46.1598V46.2V46.2403V46.2805V46.3207V46.3609V46.4012V46.4414V46.4816V46.5218V46.5621V46.6023V46.6426V46.6828V46.723V46.7633V46.8035V46.8438V46.884V46.9243V46.9645V46.9947C10.093 46.8162 9.67712 46.4728 9.28782 45.991C8.17006 44.5954 7.7843 42.9424 7.7843 41.0602V41.0586C7.7843 35.7169 7.7843 30.373 7.76448 25.0288C7.76448 25.0283 7.76448 25.0277 7.76448 25.0272L7.01146 25.03V25.0015V24.9642V24.9268V24.8895V24.8521V24.8148V24.7775V24.7401V24.7028V24.6654V24.6281V24.5907V24.5534V24.516V24.4787V24.4414V24.404V24.3667V24.3293V24.292V24.2546V24.2173V24.18V24.1426V24.1053V24.0679V24.0306V23.9932V23.9559V23.9186V23.8812V23.8439V23.8065V23.7692V23.7319V23.6945V23.6572V23.6198V23.5825V23.5452V23.5078V23.4705V23.4331V23.3958V23.3584V23.3211H6.40333C6.3985 23.3017 6.39377 23.2822 6.38915 23.2628C6.25048 23.2822 6.1316 23.3017 6.01274 23.3211L6.01264 23.3211V23.3524L5.41747 23.4941C5.45782 23.6636 5.52386 23.8985 5.57994 24.0979C5.61367 24.2179 5.64379 24.325 5.66255 24.3974C5.73262 24.6678 5.76685 24.8669 5.76684 25.0309L5.76685 25.0346C5.78666 30.3755 5.78666 35.7168 5.78666 41.0602C5.78666 41.2177 5.78904 41.3751 5.79402 41.5325L7.66622 17.051ZM7.66622 17.051C8.21422 16.5323 8.75101 16.0179 9.27318 15.5176C9.78508 15.0271 10.2829 14.55 10.7636 14.0955C10.5177 13.5773 10.2675 13.0527 10.014 12.5215C9.84006 12.1567 9.66457 11.7888 9.48796 11.4177C8.58893 11.6493 7.50893 12.0845 6.45255 12.6434C5.09691 13.3608 3.91575 14.2103 3.27816 14.9424L3.27586 14.9451L3.27586 14.945C2.55965 15.7616 2.19646 16.6219 2.19608 17.6461C2.20599 20.6296 2.20599 23.608 2.20599 26.5844V26.5853C2.20599 29.5631 2.20599 32.539 2.21589 35.5195L2.21591 35.5228C2.2159 37.1069 2.50855 38.5399 3.31344 39.8328L3.3198 39.843L3.3259 39.8534C3.63609 40.3795 3.98521 40.7721 4.40243 41.0472C4.58156 41.1653 4.78317 41.2683 5.01383 41.351L7.66622 17.051ZM7.01146 43.3994C7.25576 44.5482 7.72027 45.6321 8.50951 46.617C9.06651 47.3069 9.73194 47.8266 10.602 48.0347L7.01146 43.3994ZM7.01146 43.3994V42.5563V42.5182V42.4802V42.4422V42.4042V42.3662V42.3282V42.2901V42.2521V42.2141V42.1761V42.1381V42.1002V42.0622V42.0242V41.9862V41.9482V41.9102V41.8722V41.8343V41.7963V41.7583V41.7204V41.6824V41.6444V41.6065V41.5685V41.5306V41.4926V41.4547V41.4167V41.3788V41.3408V41.3029V41.2649V41.227V41.1891V41.1511V41.1132V41.0753V41.0602V41.0374V40.9994V40.9615V40.9236V40.8857V40.8478V40.8099V40.772V40.7341V40.6962V40.6583V40.6204V40.5825V40.5446V40.5067V40.4688V40.4309V40.3931V40.3552V40.3173V40.2794V40.2416V40.2037V40.1658V40.1279V40.0901V40.0522V40.0144V39.9765V39.9387V39.9008V39.863V39.8251V39.7873V39.7494V39.7116V39.6738V39.6359V39.5981V39.5603V39.5224V39.4846V39.4468V39.409V39.3711V39.3333V39.2955V39.2577V39.2199V39.1821V39.1443V39.1065V39.0687V39.0309V38.9931V38.9553V38.9175V38.8797V38.8419V38.8041V38.7663V38.7285V38.6908V38.653V38.6152V38.5774V38.5397V38.5019V38.4641V38.4264V38.3886V38.3508V38.3131V38.2753V38.2376V38.1998V38.1621V38.1243V38.0866V38.0488V38.0111V37.9733V37.9356V37.8979V37.8601V37.8224V37.7847V37.7469V37.7092V37.6715V37.6338V37.596V37.5583V37.5206V37.4829V37.4452V37.4075V37.3698V37.3321V37.2944V37.2567V37.219V37.1813V37.1436V37.1059V37.0682V37.0305V36.9928V36.9551V36.9174V36.8797V36.8421V36.8044V36.7667V36.729V36.6913V36.6537V36.616V36.5783V36.5407V36.503V36.4653V36.4277V36.39V36.3524V36.3147V36.2771V36.2394V36.2018V36.1641V36.1265V36.0888V36.0512V36.0135V35.9759V35.9383V35.9006V35.863V35.8253V35.7877V35.7501V35.7125V35.6748V35.6372V35.5996V35.562V35.5244V35.4867V35.4491V35.4115V35.3739V35.3363V35.2987V35.2611V35.2235V35.1859V35.1483V35.1107V35.0731V35.0355V34.9979V34.9603V34.9227V34.8851V34.8475V34.8099V34.7723V34.7347V34.6972V34.6596V34.622V34.5844V34.5468V34.5093V34.4717V34.4341V34.3966V34.359V34.3214V34.2839V34.2463V34.2087V34.1712V34.1336V34.096V34.0585V34.0209V33.9834V33.9458V33.9083V33.8707V33.8332V33.7956V33.7581V33.7206V33.683V33.6455V33.6079V33.5704V33.5329V33.4953V33.4578V33.4203V33.3827V33.3452V33.3077V33.2701V33.2326V33.1951V33.1576V33.1201V33.0825V33.045V33.0075V32.97V32.9325V32.895V32.8575V32.8199V32.7824V32.7449V32.7074V32.6699V32.6324V32.5949V32.5574V32.5199V32.4824V32.4449V32.4074V32.3699V32.3324V32.2949V32.2575V32.22V32.1825V32.145V32.1075V32.07V32.0325V31.9951V31.9576V31.9201V31.8826V31.8451V31.8077V31.7702V31.7327V31.6952V31.6578V31.6203V31.5828V31.5454V31.5079V31.4704V31.433V31.3955V31.358V31.3206V31.2831V31.2457V31.2082V31.1708V31.1333V31.0958V31.0584V31.0209V30.9835V30.946V30.9086V30.8711V30.8337V30.7962V30.7588V30.7214V30.6839V30.6465V30.609V30.5716V30.5342V30.4967V30.4593V30.4218V30.3844V30.347V30.3095V30.2721V30.2347V30.1973V30.1598V30.1224V30.085V30.0475V30.0101V29.9727V29.9353V29.8978V29.8604V29.823V29.7856V29.7482V29.7108V29.6733V29.6359V29.5985V29.5611V29.5237V29.4863V29.4489V29.4114V29.374V29.3366V29.2992V29.2618V29.2244V29.187V29.1496V29.1122V29.0748V29.0374V29V28.9626V28.9252V28.8878V28.8504V28.813V28.7756V28.7382V28.7008V28.6634V28.626V28.5886V28.5512V28.5138V28.4764V28.439V28.4017V28.3643V28.3269V28.2895V28.2521V28.2147V28.1773V28.14V28.1026V28.0652V28.0278V27.9904V27.953V27.9157V27.8783V27.8409V27.8035V27.7661V27.7288V27.6914V27.654V27.6166V27.5793V27.5419V27.5045V27.4671V27.4298V27.3924V27.355V27.3177V27.2803V27.2429V27.2055V27.1682V27.1308V27.0934V27.0561V27.0187V26.9813V26.944V26.9066V26.8692V26.8319V26.7945V26.7571V26.7198V26.6824V26.6451V26.6077V26.5703V26.533V26.4956V26.4583V26.4209V26.3835V26.3462V26.3088V26.2715V26.2341V26.1968V26.1594V26.122V26.0847V26.0473V26.01V25.9726V25.9353V25.8979V25.8606V25.8232V25.7859V25.7485V25.7112V25.6738V25.6365V25.5991V25.5618V25.5244V25.4871V25.4497V25.4124V25.375V25.3377V25.3003V25.263V25.2256V25.1883V25.1509V25.1136V25.0762V25.0389V25.0309V43.3994ZM11.358 48.1325C11.3945 48.1335 11.4313 48.1341 11.4684 48.1342C11.4683 48.1336 11.4682 48.1331 11.4682 48.1325H11.358ZM11.3749 46.5817L11.6009 46.5809L12.5997 29.8671V29.8455V29.8056V29.7658V29.7259V29.6861V29.6462V29.6064V29.5665V29.5267V29.4868V29.447V29.4071V29.3673V29.3274V29.2876V29.2477V29.2079V29.168V29.1282V29.0883V29.0485V29.0086V28.9688V28.9289V28.8891V28.8493V28.8094V28.7696V28.7297V28.6899V28.65V28.6102V28.5703V28.5305V28.4906V28.4508V28.4109V28.3711V28.3312V28.2914V28.2516V28.2117V28.1719V28.132V28.0922V28.0523V28.0125V27.9726V27.9328V27.8929V27.8531V27.8133V27.7734V27.7336V27.6937V27.6539H11.9487C11.9449 27.6344 11.9413 27.615 11.9377 27.5956C11.8783 27.6053 11.8238 27.615 11.7693 27.6247C11.7148 27.6344 11.6603 27.6442 11.6009 27.6539V27.6573L10.9552 27.7754C11.0067 28.0563 11.0813 28.3625 11.1465 28.6302C11.1751 28.7477 11.2019 28.8578 11.2242 28.955C11.3063 29.3139 11.3551 29.6047 11.355 29.8688L11.3551 29.8759C11.3777 33.0626 11.3745 36.2315 11.3712 39.4061C11.3688 41.7909 11.3664 44.179 11.3749 46.5801C11.3749 46.5806 11.3749 46.5812 11.3749 46.5817ZM12.5997 29.8853V29.8688L14.3157 52.3487C13.4106 51.301 12.8723 50.1125 12.5997 48.8429V48.1325V48.0922V48.0519V48.0116V47.9713V47.931V47.8907V47.8504V47.8101V47.7699V47.7296V47.6893V47.649V47.6087V47.5685V47.5282V47.4879V47.4476V47.4074V47.3671V47.3268V47.2866V47.2463V47.206V47.1658V47.1255V47.0853V47.045V47.0048V46.9645V46.9243V46.884V46.8438V46.8035V46.7633V46.723V46.6828V46.6426V46.6023V46.5781V46.5773V46.5621V46.5218V46.4816V46.4414V46.4012V46.3609V46.3207V46.2805V46.2403V46.2V46.1598V46.1196V46.0794V46.0392V45.999V45.9588V45.9185V45.8783V45.8381V45.7979V45.7577V45.7175V45.6773V45.6371V45.5969V45.5567V45.5165V45.4763V45.4362V45.396V45.3558V45.3156V45.2754V45.2352V45.195V45.1549V45.1147V45.0745V45.0343V44.9942V44.954V44.9138V44.8736V44.8335V44.7933V44.7532V44.713V44.6728V44.6327V44.5925V44.5524V44.5122V44.472V44.4319V44.3917V44.3516V44.3114V44.2713V44.2311V44.191V44.1509V44.1107V44.0706V44.0304V43.9903V43.9502V43.91V43.8699V43.8298V43.7896V43.7495V43.7094V43.6693V43.6291V43.589V43.5489V43.5088V43.4687V43.4285V43.3884V43.3483V43.3082V43.2681V43.228V43.1879V43.1478V43.1076V43.0675V43.0274V42.9873V42.9472V42.9071V42.867V42.8269V42.7868V42.7468V42.7067V42.6666V42.6265V42.5864V42.5463V42.5062V42.4661V42.426V42.386V42.3459V42.3058V42.2657V42.2256V42.1856V42.1455V42.1054V42.0653V42.0253V41.9852V41.9451V41.9051V41.865V41.8249V41.7849V41.7448V41.7047V41.6647V41.6246V41.5846V41.5445V41.5045V41.4644V41.4244V41.3843V41.3443V41.3042V41.2642V41.2241V41.1841V41.144V41.104V41.0639V41.0239V40.9838V40.9438V40.9038V40.8637V40.8237V40.7837V40.7436V40.7036V40.6636V40.6235V40.5835V40.5435V40.5035V40.4634V40.4234V40.3834V40.3434V40.3033V40.2633V40.2233V40.1833V40.1433V40.1033V40.0632V40.0232V39.9832V39.9432V39.9032V39.8632V39.8232V39.7832V39.7432V39.7032V39.6632V39.6232V39.5832V39.5432V39.5032V39.4632V39.4232V39.3832V39.3432V39.3032V39.2632V39.2232V39.1832V39.1432V39.1032V39.0632V39.0232V38.9833V38.9433V38.9033V38.8633V38.8233V38.7833V38.7434V38.7034V38.6634V38.6234V38.5835V38.5435V38.5035V38.4635V38.4236V38.3836V38.3436V38.3036V38.2637V38.2237V38.1837V38.1438V38.1038V38.0638V38.0239V37.9839V37.944V37.904V37.864V37.8241V37.7841V37.7442V37.7042V37.6643V37.6243V37.5843V37.5444V37.5044V37.4645V37.4245V37.3846V37.3446V37.3047V37.2647V37.2248V37.1849V37.1449V37.105V37.065V37.0251V36.9851V36.9452V36.9053V36.8653V36.8254V36.7854V36.7455V36.7056V36.6656V36.6257V36.5858V36.5458V36.5059V36.466V36.4261V36.3861V36.3462V36.3063V36.2663V36.2264V36.1865V36.1466V36.1066V36.0667V36.0268V35.9869V35.9469V35.907V35.8671V35.8272V35.7873V35.7474V35.7074V35.6675V35.6276V35.5877V35.5478V35.5079V35.468V35.428V35.3881V35.3482V35.3083V35.2684V35.2285V35.1886V35.1487V35.1088V35.0689V35.029V34.9891V34.9492V34.9092V34.8693V34.8294V34.7895V34.7496V34.7097V34.6698V34.6299V34.59V34.5501V34.5102V34.4704V34.4305V34.3906V34.3507V34.3108V34.2709V34.231V34.1911V34.1512V34.1113V34.0714V34.0315V33.9916V33.9517V33.9119V33.872V33.8321V33.7922V33.7523V33.7124V33.6725V33.6327V33.5928V33.5529V33.513V33.4731V33.4332V33.3934V33.3535V33.3136V33.2737V33.2338V33.194V33.1541V33.1142V33.0743V33.0344V32.9946V32.9547V32.9148V32.8749V32.8351V32.7952V32.7553V32.7154V32.6756V32.6357V32.5958V32.5559V32.5161V32.4762V32.4363V32.3965V32.3566V32.3167V32.2769V32.237V32.1971V32.1573V32.1174V32.0775V32.0377V31.9978V31.9579V31.9181V31.8782V31.8383V31.7985V31.7586V31.7187V31.6789V31.639V31.5991V31.5593V31.5194V31.4796V31.4397V31.3998V31.36V31.3201V31.2802V31.2404V31.2005V31.1607V31.1208V31.081V31.0411V31.0012V30.9614V30.9215V30.8817V30.8418V30.802V30.7621V30.7222V30.6824V30.6425V30.6027V30.5628V30.523V30.4831V30.4433V30.4034V30.3635V30.3237V30.2838V30.244V30.2041V30.1643V30.1244V30.0846V30.0447V30.0049V29.965V29.9252V29.8853Z" fill="#444444" stroke="#444444" stroke-width="1.99764"/>
<path d="M24.8297 29.7875C24.8 33.9723 24.8037 38.1476 24.8074 42.3236C24.8087 43.7157 24.8099 45.1079 24.8099 46.5006C24.8099 48.2414 24.4457 49.8196 23.5146 51.2069C23.0906 51.8299 22.6189 52.2939 22.0317 52.5664C22.0316 51.6737 22.0311 50.7812 22.0307 49.8889C22.0279 44.303 22.0252 38.7242 22.0912 33.1449L22.0912 33.1447C22.1099 31.5254 22.3543 29.8883 22.7207 28.2622L22.7209 28.2616C23.656 24.1006 26.572 21.5758 30.5307 19.719C30.5784 19.6969 30.6267 19.6746 30.6754 19.6521C31.335 19.3474 32.0794 19.0037 32.79 18.5458L32.0231 16.7332C31.5682 16.8389 31.1493 16.9281 30.764 17.0102C30.6787 17.0284 30.5952 17.0462 30.5132 17.0637C30.007 16.5802 29.5126 16.1063 29.0283 15.6421C28.4797 15.1163 27.9442 14.6029 27.4192 14.1022C27.5494 13.8302 27.6825 13.5525 27.8182 13.2691C28.0988 12.6836 28.3911 12.0737 28.6946 11.4388C31.4108 12.3163 33.8421 13.3778 35.4286 15.6875L35.4356 15.6977L35.4428 15.7077C35.7593 16.1449 35.9665 16.7765 35.9665 17.2981L35.9665 17.3012C35.9863 23.7502 35.9863 30.1753 35.9071 36.6182L35.9071 36.6185C35.8903 38.0204 35.3907 39.3153 34.4403 40.4526C34.0788 40.8711 33.6728 41.179 33.1686 41.3631C33.1685 35.2699 33.1674 29.3027 33.1488 23.3182L33.1461 22.472L32.311 22.3355C32.2968 22.3332 32.2757 22.3286 32.2094 22.3123L32.2005 22.3101C32.1463 22.2968 32.0534 22.274 31.9543 22.2578L31.0439 22.109L30.8234 23.0048C30.785 23.1606 30.7462 23.2854 30.7 23.4339C30.6658 23.5437 30.6276 23.6665 30.5826 23.8245C30.4942 24.1342 30.3987 24.527 30.3981 24.9492C30.3585 30.2566 30.3585 35.5825 30.3783 40.8874C30.3781 42.4787 30.1348 43.9014 29.4171 45.1747L29.4171 45.1747L29.4129 45.1821C28.9397 46.0388 28.3852 46.6464 27.62 46.9528V46.9259V46.8858V46.8456V46.8054V46.7653V46.7251V46.6849V46.6447V46.6046V46.5644V46.5242V46.4841V46.4439V46.4037V46.3636V46.3234V46.2832V46.2431V46.2029V46.1627V46.1226V46.0824V46.0422V46.0021V45.9619V45.9218V45.8816V45.8414V45.8013V45.7611V45.721V45.6808V45.6406V45.6005V45.5603V45.5202V45.48V45.4398V45.3997V45.3595V45.3194V45.2792V45.2391V45.1989V45.1588V45.1186V45.0784V45.0383V44.9981V44.958V44.9178V44.8777V44.8375V44.7974V44.7572V44.7171V44.6769V44.6368V44.5966V44.5565V44.5163V44.4762V44.4361V44.3959V44.3558V44.3156V44.2755V44.2353V44.1952V44.155V44.1149V44.0748V44.0346V43.9945V43.9543V43.9142V43.8741V43.8339V43.7938V43.7536V43.7135V43.6734V43.6332V43.5931V43.553V43.5128V43.4727V43.4326V43.3924V43.3523V43.3122V43.272V43.2319V43.1918V43.1516V43.1115V43.0714V43.0312V42.9911V42.951V42.9108V42.8707V42.8306V42.7905V42.7503V42.7102V42.6701V42.63V42.5898V42.5497V42.5096V42.4695V42.4293V42.3892V42.3491V42.309V42.2688V42.2287V42.1886V42.1485V42.1084V42.0682V42.0281V41.988V41.9479V41.9078V41.8676V41.8275V41.7874V41.7473V41.7072V41.6671V41.6269V41.5868V41.5467V41.5066V41.4665V41.4264V41.3863V41.3462V41.306V41.2659V41.2258V41.1857V41.1456V41.1055V41.0654V41.0253V40.9852V40.9451V40.905V40.8649V40.8247V40.7846V40.7445V40.7044V40.6643V40.6242V40.5841V40.544V40.5039V40.4638V40.4237V40.3836V40.3435V40.3034V40.2633V40.2232V40.1831V40.143V40.1029V40.0628V40.0227V39.9826V39.9425V39.9024V39.8623V39.8222V39.7821V39.7421V39.702V39.6619V39.6218V39.5817V39.5416V39.5015V39.4614V39.4213V39.3812V39.3411V39.301V39.261V39.2209V39.1808V39.1407V39.1006V39.0605V39.0204V38.9804V38.9403V38.9002V38.8601V38.82V38.7799V38.7398V38.6998V38.6597V38.6196V38.5795V38.5394V38.4994V38.4593V38.4192V38.3791V38.339V38.299V38.2589V38.2188V38.1787V38.1387V38.0986V38.0585V38.0184V37.9784V37.9383V37.8982V37.8581V37.8181V37.778V37.7379V37.6979V37.6578V37.6177V37.5776V37.5376V37.4975V37.4574V37.4174V37.3773V37.3372V37.2972V37.2571V37.217V37.177V37.1369V37.0968V37.0568V37.0167V36.9766V36.9366V36.8965V36.8565V36.8164V36.7763V36.7363V36.6962V36.6562V36.6161V36.576V36.536V36.4959V36.4559V36.4158V36.3757V36.3357V36.2956V36.2556V36.2155V36.1755V36.1354V36.0954V36.0553V36.0153V35.9752V35.9352V35.8951V35.8551V35.815V35.775V35.7349V35.6949V35.6548V35.6148V35.5747V35.5347V35.4946V35.4546V35.4145V35.3745V35.3344V35.2944V35.2543V35.2143V35.1743V35.1342V35.0942V35.0541V35.0141V34.974V34.934V34.894V34.8539V34.8139V34.7739V34.7338V34.6938V34.6537V34.6137V34.5737V34.5336V34.4936V34.4536V34.4135V34.3735V34.3335V34.2934V34.2534V34.2134V34.1733V34.1333V34.0933V34.0532V34.0132V33.9732V33.9331V33.8931V33.8531V33.8131V33.773V33.733V33.693V33.6529V33.6129V33.5729V33.5329V33.4928V33.4528V33.4128V33.3728V33.3328V33.2927V33.2527V33.2127V33.1727V33.1326V33.0926V33.0526V33.0126V32.9726V32.9325V32.8925V32.8525V32.8125V32.7725V32.7325V32.6924V32.6524V32.6124V32.5724V32.5324V32.4924V32.4524V32.4124V32.3723V32.3323V32.2923V32.2523V32.2123V32.1723V32.1323V32.0923V32.0523V32.0122V31.9722V31.9322V31.8922V31.8522V31.8122V31.7722V31.7322V31.6922V31.6522V31.6122V31.5722V31.5322V31.4922V31.4522V31.4122V31.3722V31.3322V31.2922V31.2522V31.2122V31.1722V31.1322V31.0922V31.0522V31.0122V30.9722V30.9322V30.8922V30.8522V30.8122V30.7722V30.7322V30.6922V30.6522V30.6122V30.5723V30.5323V30.4923V30.4523V30.4123V30.3723V30.3323V30.2923V30.2523V30.2123V30.1724V30.1324V30.0924V30.0524V30.0124V29.9724V29.9324V29.8925V29.8525V29.8125V29.7725V29.7325V29.6925V29.6526V29.6126V29.5726V29.5326V29.4926V29.4527V29.4127V29.3727V29.3327V29.2927V29.2528V29.2128V29.1728V29.1328V29.0929V29.0529V29.0129V28.9729V28.933V28.893V28.853V28.813V28.7731V28.7331V28.6931V28.6532V28.6132V28.5732V28.5332V28.4933V28.4533V28.4133V28.3734V28.3334V28.2934V28.2535V28.2135V28.1735V28.1336V28.0936V28.0536V28.0137V27.9737V27.9338V27.8938V27.8538V27.8139V27.7739V27.734V27.694V27.654V26.9297L26.9315 26.7046C26.7421 26.6427 26.5856 26.6135 26.4454 26.5906L25.5073 26.4373L25.3077 27.3666C25.262 27.5797 25.211 27.7645 25.1529 27.9749C25.1149 28.1129 25.0738 28.2618 25.0291 28.437C24.9292 28.8287 24.8302 29.2931 24.8297 29.7875Z" fill="#444444" stroke="#444444" stroke-width="1.99764"/>
<path d="M19.1114 1.33443L19.1114 1.33452L19.1247 1.33461C21.4665 1.35045 23.2651 3.15588 23.2651 5.4069C23.2651 7.71376 21.4512 9.51636 19.0753 9.51803C16.6796 9.50053 14.9005 7.71941 14.8987 5.39092C14.9165 3.0795 16.7505 1.28719 19.1114 1.33443Z" fill="#444444" stroke="#444444" stroke-width="1.99764"/>
<path d="M8.23922 17.8241C9.57526 16.5501 10.7805 15.4044 11.9178 14.3253C11.5733 13.5953 11.2164 12.8471 10.854 12.0873C10.5701 11.4921 10.2829 10.8899 9.99562 10.284C7.6771 10.5948 3.97144 12.5572 2.46539 14.2864L8.23922 17.8241ZM8.23922 17.8241C8.15988 17.7864 8.08053 17.7486 8.00121 17.7109L8.23922 17.8241ZM6.39417 12.6355C7.45183 12.074 8.53056 11.6396 9.42623 11.4131C9.60355 11.7858 9.77974 12.1551 9.95443 12.5214C10.2084 13.0538 10.4592 13.5795 10.7056 14.0988C9.73886 15.0166 8.71827 15.9873 7.60741 17.0465C7.54462 17.0327 7.4794 17.0185 7.41189 17.0037C7.35582 16.9914 7.29817 16.9788 7.239 16.9658C6.89382 16.8903 6.5055 16.8063 6.11038 16.7268L5.36777 16.5774L5.02365 17.2522C5.00267 17.2934 4.98579 17.3318 4.97184 17.3674C4.96865 17.3755 4.96566 17.3834 4.96295 17.3907L4.51929 18.2607L5.44142 18.7035C5.92878 18.9376 6.4208 19.1715 6.91072 19.4044L6.91139 19.4047C7.40188 19.6379 7.89028 19.87 8.37344 20.1021C13.0702 22.3683 15.6521 25.9831 15.854 31.0153C16.0231 35.4231 16.0412 39.842 16.0594 44.2724C16.0667 46.0527 16.074 47.8348 16.0911 49.6187L16.0912 49.6237C16.1042 50.517 16.0999 51.4024 16.0956 52.3156C16.0952 52.3953 16.0948 52.4752 16.0944 52.5553C15.7013 52.3789 15.3543 52.0865 15.012 51.6957C13.7825 50.2534 13.313 48.5262 13.313 46.5782L13.3129 46.5746C13.3045 44.1964 13.3069 41.8122 13.3093 39.4259C13.3125 36.2398 13.3158 33.0498 13.2931 29.865C13.2927 29.3727 13.2029 28.9072 13.1119 28.5094C13.0756 28.3506 13.0411 28.2099 13.0089 28.0782C12.952 27.8458 12.902 27.6415 12.8607 27.4157L12.6842 26.4518L11.7171 26.6098C11.6506 26.6207 11.5902 26.6315 11.537 26.641L11.5344 26.6414C11.4792 26.6513 11.4315 26.6598 11.3802 26.6681L10.5425 26.805V27.6539V27.6937V27.7336V27.7734V27.8133V27.8531V27.893V27.9328V27.9727V28.0125V28.0524V28.0922V28.1321V28.1719V28.2118V28.2516V28.2915V28.3313V28.3712V28.411V28.4509V28.4907V28.5306V28.5704V28.6103V28.6502V28.69V28.7299V28.7697V28.8096V28.8494V28.8893V28.9292V28.969V29.0089V29.0488V29.0886V29.1285V29.1683V29.2082V29.2481V29.2879V29.3278V29.3677V29.4075V29.4474V29.4873V29.5271V29.567V29.6069V29.6467V29.6866V29.7265V29.7663V29.8062V29.8461V29.886V29.9258V29.9657V30.0056V30.0454V30.0853V30.1252V30.1651V30.2049V30.2448V30.2847V30.3246V30.3644V30.4043V30.4442V30.4841V30.524V30.5638V30.6037V30.6436V30.6835V30.7234V30.7633V30.8031V30.843V30.8829V30.9228V30.9627V31.0026V31.0424V31.0823V31.1222V31.1621V31.202V31.2419V31.2818V31.3217V31.3616V31.4014V31.4413V31.4812V31.5211V31.561V31.6009V31.6408V31.6807V31.7206V31.7605V31.8004V31.8403V31.8802V31.9201V31.96V31.9999V32.0398V32.0797V32.1196V32.1595V32.1994V32.2393V32.2792V32.3191V32.359V32.3989V32.4388V32.4787V32.5186V32.5585V32.5984V32.6383V32.6782V32.7181V32.7581V32.798V32.8379V32.8778V32.9177V32.9576V32.9975V33.0374V33.0773V33.1173V33.1572V33.1971V33.237V33.2769V33.3168V33.3568V33.3967V33.4366V33.4765V33.5164V33.5564V33.5963V33.6362V33.6761V33.716V33.756V33.7959V33.8358V33.8757V33.9157V33.9556V33.9955V34.0354V34.0754V34.1153V34.1552V34.1952V34.2351V34.275V34.315V34.3549V34.3948V34.4348V34.4747V34.5146V34.5546V34.5945V34.6344V34.6744V34.7143V34.7542V34.7942V34.8341V34.8741V34.914V34.9539V34.9939V35.0338V35.0738V35.1137V35.1537V35.1936V35.2336V35.2735V35.3134V35.3534V35.3933V35.4333V35.4732V35.5132V35.5531V35.5931V35.633V35.673V35.7129V35.7529V35.7929V35.8328V35.8728V35.9127V35.9527V35.9926V36.0326V36.0725V36.1125V36.1525V36.1924V36.2324V36.2723V36.3123V36.3523V36.3922V36.4322V36.4722V36.5121V36.5521V36.5921V36.632V36.672V36.712V36.7519V36.7919V36.8319V36.8718V36.9118V36.9518V36.9918V37.0317V37.0717V37.1117V37.1517V37.1916V37.2316V37.2716V37.3116V37.3516V37.3915V37.4315V37.4715V37.5115V37.5515V37.5914V37.6314V37.6714V37.7114V37.7514V37.7914V37.8313V37.8713V37.9113V37.9513V37.9913V38.0313V38.0713V38.1113V38.1513V38.1913V38.2313V38.2712V38.3112V38.3512V38.3912V38.4312V38.4712V38.5112V38.5512V38.5912V38.6312V38.6712V38.7112V38.7512V38.7912V38.8312V38.8712V38.9112V38.9513V38.9913V39.0313V39.0713V39.1113V39.1513V39.1913V39.2313V39.2713V39.3113V39.3513V39.3914V39.4314V39.4714V39.5114V39.5514V39.5914V39.6315V39.6715V39.7115V39.7515V39.7915V39.8316V39.8716V39.9116V39.9516V39.9917V40.0317V40.0717V40.1117V40.1518V40.1918V40.2318V40.2718V40.3119V40.3519V40.3919V40.432V40.472V40.512V40.5521V40.5921V40.6321V40.6722V40.7122V40.7522V40.7923V40.8323V40.8724V40.9124V40.9524V40.9925V41.0325V41.0726V41.1126V41.1527V41.1927V41.2328V41.2728V41.3128V41.3529V41.3929V41.433V41.4731V41.5131V41.5532V41.5932V41.6333V41.6733V41.7134V41.7534V41.7935V41.8335V41.8736V41.9137V41.9537V41.9938V42.0338V42.0739V42.114V42.154V42.1941V42.2342V42.2742V42.3143V42.3544V42.3944V42.4345V42.4746V42.5146V42.5547V42.5948V42.6349V42.6749V42.715V42.7551V42.7952V42.8352V42.8753V42.9154V42.9555V42.9955V43.0356V43.0757V43.1158V43.1559V43.196V43.236V43.2761V43.3162V43.3563V43.3964V43.4365V43.4766V43.5167V43.5568V43.5968V43.6369V43.677V43.7171V43.7572V43.7973V43.8374V43.8775V43.9176V43.9577V43.9978V44.0379V44.078V44.1181V44.1582V44.1983V44.2384V44.2785V44.3186V44.3587V44.3988V44.439V44.4791V44.5192V44.5593V44.5994V44.6395V44.6796V44.7197V44.7598V44.8V44.8401V44.8802V44.9203V44.9604V45.0006V45.0407V45.0808V45.1209V45.161V45.2012V45.2413V45.2814V45.3215V45.3617V45.4018V45.4419V45.4821V45.5222V45.5623V45.6025V45.6426V45.6827V45.7229V45.763V45.8031V45.8433V45.8834V45.9235V45.9637V46.0038V46.044V46.0841V46.1243V46.1644V46.2045V46.2447V46.2848V46.325V46.3651V46.4053V46.4454V46.4856V46.5257V46.5659V46.606V46.6462V46.6863V46.7265V46.7667V46.8068V46.847V46.8871V46.9273V46.9675V46.9947C10.0334 46.8163 9.61755 46.4728 9.22825 45.991C8.1105 44.5954 7.72473 42.9424 7.72473 41.0602C7.72473 39.7265 7.72597 38.392 7.72721 37.057C7.73092 33.0497 7.73464 29.0376 7.70491 25.0268C7.70436 24.6094 7.61997 24.2175 7.53674 23.8963C7.48876 23.7112 7.45062 23.5789 7.41614 23.4592C7.37614 23.3205 7.34106 23.1988 7.30127 23.0316L7.08603 22.1271L6.16851 22.2771C6.04902 22.2966 5.94054 22.3143 5.81453 22.3319L4.94612 22.4536L4.9543 23.3304C5.01005 29.3065 5.01348 35.2833 5.01369 41.3609C4.24454 41.0906 3.70779 40.5632 3.25427 39.8335L3.25429 39.8335L3.25075 39.8279C2.45421 38.565 2.17534 37.1195 2.15631 35.5153C2.14642 32.5362 2.14642 29.5617 2.14642 26.5853V26.5844C2.14642 23.608 2.14642 20.6296 2.13651 17.6461C2.13689 16.6219 2.50008 15.7616 3.21629 14.945L3.21629 14.9451L3.21859 14.9424C3.85718 14.2092 5.03956 13.3546 6.39417 12.6355ZM8.43059 19.0219C8.55621 19.082 8.68158 19.142 8.80663 19.2021C13.8004 21.6113 16.6341 25.5361 16.8521 30.9763L8.43059 19.0219ZM16.9731 53.7476H17.0899L16.0911 53.6169C16.3628 53.6967 16.6556 53.7426 16.9731 53.7476ZM11.4089 48.1325C11.4089 48.1331 11.409 48.1337 11.4091 48.1342C11.3719 48.1341 11.335 48.1336 11.2985 48.1325H11.4089ZM10.5425 48.0347C9.67238 47.8266 9.00695 47.3069 8.44994 46.617C7.70932 45.6928 7.25465 44.6814 6.99957 43.611L10.5425 48.0347Z" fill="#444444" stroke="#444444" stroke-width="1.99764"/>
<path d="M29.432 45.2017C28.9587 46.0583 28.4042 46.6659 27.639 46.9724V46.9424V46.9021V46.8619V46.8216V46.7813V46.7411V46.7008V46.6606V46.6203V46.5801V46.5398V46.4996V46.4593V46.4191V46.3788V46.3386V46.2984V46.2581V46.2179V46.1776V46.1374V46.0972V46.0569V46.0167V45.9765V45.9362V45.896V45.8558V45.8156V45.7753V45.7351V45.6949V45.6547V45.6144V45.5742V45.534V45.4938V45.4536V45.4133V45.3731V45.3329V45.2927V45.2525V45.2123V45.1721V45.1319V45.0917V45.0515V45.0113V44.971V44.9308V44.8906V44.8504V44.8102V44.77V44.7299V44.6897V44.6495V44.6093V44.5691V44.5289V44.4887V44.4485V44.4083V44.3681V44.3279V44.2878V44.2476V44.2074V44.1672V44.127V44.0869V44.0467V44.0065V43.9663V43.9262V43.886V43.8458V43.8056V43.7655V43.7253V43.6851V43.645V43.6048V43.5646V43.5245V43.4843V43.4441V43.404V43.3638V43.3237V43.2835V43.2433V43.2032V43.163V43.1229V43.0827V43.0426V43.0024V42.9623V42.9221V42.882V42.8418V42.8017V42.7615V42.7214V42.6812V42.6411V42.601V42.5608V42.5207V42.4805V42.4404V42.4003V42.3601V42.32V42.2799V42.2397V42.1996V42.1595V42.1193V42.0792V42.0391V41.999V41.9588V41.9187V41.8786V41.8385V41.7983V41.7582V41.7181V41.678V41.6379V41.5977V41.5576V41.5175V41.4774V41.4373V41.3972V41.3571V41.3169V41.2768V41.2367V41.1966V41.1565V41.1164V41.0763V41.0362V40.9961V40.956V40.9159V40.8758V40.8357V40.7956V40.7555V40.7154V40.6753V40.6352V40.5951V40.555V40.5149V40.4748V40.4347V40.3946V40.3545V40.3144V40.2744V40.2343V40.1942V40.1541V40.114V40.0739V40.0338V39.9938V39.9537V39.9136V39.8735V39.8334V39.7934V39.7533V39.7132V39.6731V39.633V39.593V39.5529V39.5128V39.4727V39.4327V39.3926V39.3525V39.3125V39.2724V39.2323V39.1923V39.1522V39.1121V39.0721V39.032V38.9919V38.9519V38.9118V38.8717V38.8317V38.7916V38.7516V38.7115V38.6714V38.6314V38.5913V38.5513V38.5112V38.4712V38.4311V38.3911V38.351V38.3109V38.2709V38.2308V38.1908V38.1507V38.1107V38.0706V38.0306V37.9906V37.9505V37.9105V37.8704V37.8304V37.7903V37.7503V37.7102V37.6702V37.6302V37.5901V37.5501V37.51V37.47V37.43V37.3899V37.3499V37.3099V37.2698V37.2298V37.1898V37.1497V37.1097V37.0697V37.0296V36.9896V36.9496V36.9095V36.8695V36.8295V36.7895V36.7494V36.7094V36.6694V36.6294V36.5893V36.5493V36.5093V36.4693V36.4292V36.3892V36.3492V36.3092V36.2692V36.2291V36.1891V36.1491V36.1091V36.0691V36.0291V35.989V35.949V35.909V35.869V35.829V35.789V35.749V35.7089V35.6689V35.6289V35.5889V35.5489V35.5089V35.4689V35.4289V35.3889V35.3488V35.3088V35.2688V35.2288V35.1888V35.1488V35.1088V35.0688V35.0288V34.9888V34.9488V34.9088V34.8688V34.8288V34.7888V34.7488V34.7088V34.6688V34.6288V34.5888V34.5488V34.5088V34.4688V34.4288V34.3888V34.3488V34.3088V34.2688V34.2288V34.1888V34.1488V34.1088V34.0689V34.0289V33.9889V33.9489V33.9089V33.8689V33.8289V33.7889V33.7489V33.7089V33.6689V33.629V33.589V33.549V33.509V33.469V33.429V33.389V33.349V33.3091V33.2691V33.2291V33.1891V33.1491V33.1091V33.0692V33.0292V32.9892V32.9492V32.9092V32.8692V32.8293V32.7893V32.7493V32.7093V32.6693V32.6294V32.5894V32.5494V32.5094V32.4694V32.4295V32.3895V32.3495V32.3095V32.2696V32.2296V32.1896V32.1496V32.1097V32.0697V32.0297V31.9897V31.9498V31.9098V31.8698V31.8298V31.7899V31.7499V31.7099V31.6699V31.63V31.59V31.55V31.5101V31.4701V31.4301V31.3901V31.3502V31.3102V31.2702V31.2303V31.1903V31.1503V31.1104V31.0704V31.0304V30.9904V30.9505V30.9105V30.8705V30.8306V30.7906V30.7506V30.7107V30.6707V30.6307V30.5908V30.5508V30.5108V30.4709V30.4309V30.3909V30.351V30.311V30.2711V30.2311V30.1911V30.1512V30.1112V30.0712V30.0313V29.9913V29.9513V29.9114V29.8714V29.8314V29.7915V29.7515V29.7116V29.6716V29.6316V29.5917V29.5517V29.5117V29.4718V29.4318V29.3919V29.3519V29.3119V29.272V29.232V29.1921V29.1521V29.1121V29.0722V29.0322V28.9922V28.9523V28.9123V28.8724V28.8324V28.7924V28.7525V28.7125V28.6726V28.6326V28.5926V28.5527V28.5127V28.4728V28.4328V28.3928V28.3529V28.3129V28.273V28.233V28.193V28.1531V28.1131V28.0732V28.0332V27.9932V27.9533V27.9133V27.8734V27.8334V27.7935V27.7535V27.7135V27.6736V26.8247L26.8013 26.6878C26.7037 26.6719 26.662 26.6623 26.6136 26.6465L25.5596 26.302L25.3268 27.3862C25.281 27.5993 25.2301 27.784 25.172 27.9945C25.1339 28.1324 25.0928 28.2814 25.0482 28.4566C24.9483 28.8483 24.8493 29.3127 24.8488 29.807C24.819 33.9918 24.8227 38.1671 24.8265 42.3431C24.8277 43.7352 24.8289 45.1274 24.8289 46.5201C24.8289 48.2619 24.4644 49.8407 23.5322 51.2286L23.5309 51.2306C23.1102 51.8601 22.6403 52.321 22.0508 52.5903C22.0506 51.6961 22.0502 50.8021 22.0497 49.9083C22.047 44.3224 22.0442 38.7437 22.1102 33.1645L22.1102 33.1644C22.1289 31.571 22.3909 29.9171 22.741 28.2765C23.6775 24.1362 26.5747 21.5948 30.5443 19.7411C31.2753 19.4117 32.0482 19.0555 32.8091 18.5653L32.0477 16.7515C31.6667 16.8377 31.2896 16.9193 30.9405 16.9946C30.905 17.0022 30.8699 17.0098 30.8349 17.0173C30.7309 17.0397 30.6294 17.0616 30.5314 17.0828C30.4451 17.0006 30.3592 16.9188 30.2738 16.8374C29.281 15.8914 28.3444 14.9989 27.4336 14.1232C27.8328 13.2811 28.2576 12.3957 28.7082 11.461C31.4323 12.3527 33.8612 13.3974 35.4477 15.7071L35.4492 15.7093C35.7552 16.1522 35.9689 16.7953 35.9856 17.3351C36.0252 23.7757 36.0053 30.197 35.9262 36.6377L35.9262 36.638C35.9094 38.0382 35.4111 39.3315 34.4631 40.4677C34.1021 40.8752 33.6912 41.1774 33.1678 41.361V41.3379V41.2999V41.2619V41.2238V41.1858V41.1478V41.1098V41.0718V41.0338V40.9958V40.9578V40.9198V40.8818V40.8438V40.8058V40.7679V40.7299V40.6919V40.6539V40.616V40.578V40.54V40.5021V40.4641V40.4262V40.3882V40.3503V40.3124V40.2744V40.2365V40.1985V40.1606V40.1227V40.0848V40.0468V40.0089V39.971V39.9331V39.8952V39.8573V39.8194V39.7815V39.7436V39.7057V39.6678V39.6299V39.592V39.5542V39.5163V39.4784V39.4405V39.4027V39.3648V39.327V39.2891V39.2512V39.2134V39.1755V39.1377V39.0998V39.062V39.0242V38.9863V38.9485V38.9107V38.8728V38.835V38.7972V38.7594V38.7216V38.6837V38.6459V38.6081V38.5703V38.5325V38.4947V38.4569V38.4191V38.3813V38.3436V38.3058V38.268V38.2302V38.1924V38.1547V38.1169V38.0791V38.0414V38.0036V37.9658V37.9281V37.8903V37.8526V37.8148V37.7771V37.7393V37.7016V37.6639V37.6261V37.5884V37.5507V37.5129V37.4752V37.4375V37.3998V37.3621V37.3243V37.2866V37.2489V37.2112V37.1735V37.1358V37.0981V37.0604V37.0227V36.985V36.9473V36.9096V36.872V36.8343V36.7966V36.7589V36.7213V36.6836V36.6459V36.6082V36.5706V36.5329V36.4953V36.4576V36.42V36.3823V36.3447V36.307V36.2694V36.2317V36.1941V36.1564V36.1188V36.0812V36.0435V36.0059V35.9683V35.9307V35.8931V35.8554V35.8178V35.7802V35.7426V35.705V35.6674V35.6298V35.5922V35.5546V35.517V35.4794V35.4418V35.4042V35.3666V35.329V35.2914V35.2539V35.2163V35.1787V35.1411V35.1035V35.066V35.0284V34.9908V34.9533V34.9157V34.8782V34.8406V34.803V34.7655V34.7279V34.6904V34.6528V34.6153V34.5778V34.5402V34.5027V34.4651V34.4276V34.3901V34.3525V34.315V34.2775V34.24V34.2024V34.1649V34.1274V34.0899V34.0524V34.0149V33.9773V33.9398V33.9023V33.8648V33.8273V33.7898V33.7523V33.7148V33.6773V33.6398V33.6023V33.5649V33.5274V33.4899V33.4524V33.4149V33.3774V33.34V33.3025V33.265V33.2275V33.1901V33.1526V33.1151V33.0777V33.0402V33.0028V32.9653V32.9278V32.8904V32.8529V32.8155V32.778V32.7406V32.7031V32.6657V32.6282V32.5908V32.5534V32.5159V32.4785V32.441V32.4036V32.3662V32.3288V32.2913V32.2539V32.2165V32.1791V32.1416V32.1042V32.0668V32.0294V31.992V31.9545V31.9171V31.8797V31.8423V31.8049V31.7675V31.7301V31.6927V31.6553V31.6179V31.5805V31.5431V31.5057V31.4683V31.4309V31.3935V31.3561V31.3188V31.2814V31.244V31.2066V31.1692V31.1318V31.0945V31.0571V31.0197V30.9823V30.945V30.9076V30.8702V30.8329V30.7955V30.7581V30.7208V30.6834V30.646V30.6087V30.5713V30.534V30.4966V30.4593V30.4219V30.3846V30.3472V30.3098V30.2725V30.2352V30.1978V30.1605V30.1231V30.0858V30.0484V30.0111V29.9738V29.9364V29.8991V29.8618V29.8244V29.7871V29.7498V29.7124V29.6751V29.6378V29.6005V29.5631V29.5258V29.4885V29.4512V29.4138V29.3765V29.3392V29.3019V29.2646V29.2273V29.1899V29.1526V29.1153V29.078V29.0407V29.0034V28.9661V28.9288V28.8915V28.8542V28.8169V28.7796V28.7423V28.705V28.6677V28.6304V28.5931V28.5558V28.5185V28.4812V28.4439V28.4066V28.3693V28.332V28.2947V28.2574V28.2202V28.1829V28.1456V28.1083V28.071V28.0337V27.9965V27.9592V27.9219V27.8846V27.8473V27.8101V27.7728V27.7355V27.6982V27.661V27.6237V27.5864V27.5491V27.5119V27.4746V27.4373V27.4001V27.3628V27.3255V27.2883V27.251V27.2137V27.1765V27.1392V27.1019V27.0647V27.0274V26.9902V26.9529V26.9156V26.8784V26.8411V26.8039V26.7666V26.7293V26.6921V26.6548V26.6176V26.5803V26.5431V26.5058V26.4686V26.4313V26.3941V26.3568V26.3196V26.2823V26.2451V26.2078V26.1706V26.1333V26.0961V26.0588V26.0216V25.9843V25.9471V25.9099V25.8726V25.8354V25.7981V25.7609V25.7236V25.6864V25.6492V25.6119V25.5747V25.5374V25.5002V25.463V25.4257V25.3885V25.3513V25.314V25.2768V25.2395V25.2023V25.1651V25.1278V25.0906V25.0534V25.0161V24.9789V24.9417V24.9044V24.8672V24.83V24.7927V24.7555V24.7183V24.681V24.6438V24.6066V24.5693V24.5321V24.4949V24.4576V24.4204V24.3832V24.346V24.3087V24.2715V24.2343V24.197V24.1598V24.1226V24.0854V24.0481V24.0109V23.9737V23.9364V23.8992V23.862V23.8248V23.7875V23.7503V23.7131V23.6758V23.6386V23.6014V23.5642V23.5269V23.4897V23.4525V23.4153V23.378V23.3408V22.492L32.3301 22.3551C32.3159 22.3527 32.2947 22.3481 32.2284 22.3318L32.2196 22.3297C32.1653 22.3163 32.0725 22.2935 31.9734 22.2773L31.063 22.1286L30.8424 23.0243C30.8041 23.1801 30.7653 23.3049 30.7191 23.4534C30.6849 23.5632 30.6467 23.686 30.6016 23.844C30.5133 24.1537 30.4178 24.5465 30.4172 24.9687C30.3874 28.951 30.3911 32.9457 30.3949 36.93C30.3961 38.2564 30.3973 39.5817 30.3973 40.905C30.3973 42.4787 30.1538 43.921 29.4361 45.1942L29.4361 45.1942L29.432 45.2017Z" fill="#444444" stroke="#444444" stroke-width="1.99764"/>
<path d="M14.8987 5.38772C14.8987 3.10447 16.7457 1.28381 19.1179 1.31536L19.1181 1.31536C21.4714 1.34728 23.2651 3.14278 23.2651 5.38772C23.2651 7.69812 21.4668 9.49884 19.072 9.49884C16.6797 9.49884 14.8987 7.72006 14.8987 5.38772Z" fill="#444444" stroke="#444444" stroke-width="1.99764"/>
<path d="M70.8321 23.3079L68.6691 24.3002L70.8924 25.1489C71.9693 25.5599 72.6806 26.2178 73.1417 27.093C73.6168 27.9946 73.8564 29.1864 73.8564 30.6857V33.1533C73.8564 35.3113 73.2767 36.8092 72.2932 37.7735C71.3065 38.7409 69.7579 39.3239 67.5033 39.3239H60.8728V11.1088H67.1863C69.5725 11.1088 71.0634 11.6542 71.9689 12.5477C72.8713 13.4381 73.3808 14.8605 73.3808 17.0463V18.1343C73.3808 19.5943 73.1513 20.6958 72.7339 21.5163C72.3278 22.3146 71.7167 22.9021 70.8321 23.3079ZM63.7302 22.4088V23.4076H64.729H66.6314C67.6531 23.4076 68.6953 23.1903 69.4669 22.4264C70.2385 21.6624 70.5432 20.5466 70.5432 19.2029V17.5126C70.5432 16.3558 70.3487 15.3004 69.7341 14.5277C69.0771 13.7017 68.1141 13.405 67.0674 13.405H64.729H63.7302V14.4039V14.4233V22.4088ZM64.729 25.7427H63.7302V26.7416V36.0288V37.0277H64.729H67.5033C68.4479 37.0277 69.4106 36.8139 70.1066 36.056C70.7821 35.3206 71.0188 34.2723 71.0188 33.0561V30.4137C71.0188 28.9481 70.7882 27.7071 70.0228 26.8541C69.2272 25.9675 68.0811 25.7427 66.889 25.7427H64.729Z" fill="#444444" stroke="#444444" stroke-width="1.99764"/>
<path d="M78.7874 39.346V11.1087H81.6448V21.4761V22.4749H82.6436H84.9423C87.1935 22.4749 88.7003 23.0842 89.6551 24.0898C90.6186 25.1047 91.1764 26.6873 91.1764 28.9565V32.8812C91.1764 35.1504 90.6186 36.733 89.6551 37.7479C88.7005 38.7533 87.194 39.3625 84.9436 39.3627C84.9431 39.3627 84.9427 39.3627 84.9423 39.3627L78.7874 39.346ZM82.6238 24.7906H81.625V25.7895V36.0288V37.0276H82.6238H84.9225C85.8267 37.0276 86.7598 36.8238 87.4324 36.0788C88.0803 35.3612 88.2993 34.3427 88.2993 33.1726V28.6456C88.2993 27.4755 88.0803 26.457 87.4324 25.7394C86.7598 24.9944 85.8267 24.7906 84.9225 24.7906H82.6238ZM95.9087 39.3433V11.1087H98.7661V39.3433H95.9087Z" fill="#444444" stroke="#444444" stroke-width="1.99764"/>
<path d="M116.363 30.0523V33.0948C116.363 35.3542 115.785 36.9738 114.8 38.0243C113.825 39.0643 112.313 39.6929 110.128 39.6929C107.944 39.6929 106.432 39.0643 105.457 38.0243C104.472 36.9738 103.894 35.3542 103.894 33.0948V17.357C103.894 15.0957 104.468 13.4764 105.45 12.4267C106.422 11.3881 107.933 10.7589 110.128 10.7589C112.313 10.7589 113.825 11.3875 114.8 12.4275C115.785 13.478 116.363 15.0976 116.363 17.357V19.292H113.763V17.0461C113.763 15.8389 113.493 14.8059 112.82 14.0745C112.132 13.3265 111.189 13.0746 110.247 13.0746C109.305 13.0746 108.363 13.3265 107.675 14.0745C107.001 14.8059 106.732 15.8389 106.732 17.0461V33.3668C106.732 34.5732 107.001 35.6024 107.682 36.3265C108.375 37.0641 109.318 37.2995 110.247 37.2995C111.177 37.2995 112.12 37.0641 112.813 36.3265C113.494 35.6024 113.763 34.5732 113.763 33.3668V30.0523H116.363Z" fill="#444444" stroke="#444444" stroke-width="1.99764"/>
<path d="M139.384 36.0288V11.1087H142.222V39.3433H121.312V11.1087H124.169V36.0288V37.0276H125.168H129.349H130.348V36.0288V11.1087H133.205V36.0288V37.0276H134.204H138.386H139.384V36.0288Z" fill="#444444" stroke="#444444" stroke-width="1.99764"/>
<path d="M157.704 34.713L157.575 33.8642H156.717H150.772H149.913L149.784 34.713L149.081 39.3433H146.656L151.264 11.1087H156.66L161.269 39.3433H158.408L157.704 34.713ZM150.399 30.5735L150.223 31.7233H151.386H156.063H157.226L157.05 30.5735L154.712 15.2826H152.737L150.399 30.5735Z" fill="#444444" stroke="#444444" stroke-width="1.99764"/>
<path d="M165.155 39.3432C165.322 38.4956 165.345 37.634 165.345 36.6698V32.0068C165.345 30.5007 165.537 29.3039 165.952 28.399C166.352 27.529 166.97 26.8953 167.935 26.4998L170.064 25.6272L167.973 24.6678C167.092 24.2638 166.469 23.6633 166.05 22.8453C165.622 22.0076 165.385 20.8904 165.385 19.4359V17.0461C165.385 14.8495 165.895 13.4217 166.795 12.5291C167.699 11.6342 169.184 11.0892 171.559 11.0892H177.873V39.3237H175.015V28.0237V27.0249H174.016H172.332C171.094 27.0249 169.949 27.3153 169.161 28.2442C168.409 29.1298 168.163 30.3913 168.163 31.8708V36.631C168.163 37.8491 168.118 38.5253 168.052 38.975C168.031 39.114 168.009 39.2327 167.983 39.3432H165.155ZM174.036 24.6898H175.035V23.691V14.4231V13.4243H174.036H171.698C170.651 13.4243 169.688 13.721 169.031 14.5469C168.417 15.3197 168.222 16.3751 168.222 17.5318V20.5045C168.222 21.8405 168.528 22.9517 169.3 23.7127C170.071 24.4725 171.112 24.6898 172.134 24.6898H174.036Z" fill="#444444" stroke="#444444" stroke-width="1.99764"/>
<path d="M200.033 11.1281H203.634V39.3627H201.272V19.028L199.308 18.7704L197.33 26.181L193.481 39.3433H190.254V11.1087H192.577V29.2479L194.541 29.5041L196.298 22.8825L200.033 11.1281Z" fill="#444444" stroke="#444444" stroke-width="1.99764"/>
<path d="M219.425 23.0693V11.1087H222.361V39.3433H219.425V27.3827V26.3838H218.426H212.917H211.918V27.3827V39.3433H209.061V11.1087H211.918V23.0693V24.0681H212.917H218.426H219.425V23.0693Z" fill="#444444" stroke="#444444" stroke-width="1.99764"/>
<path d="M239.938 30.0523V33.0948C239.938 35.3542 239.361 36.9738 238.376 38.0243C237.4 39.0643 235.889 39.6929 233.704 39.6929C231.52 39.6929 230.008 39.0643 229.033 38.0243C228.048 36.9738 227.47 35.3542 227.47 33.0948V17.357C227.47 15.0957 228.044 13.4764 229.026 12.4267C229.998 11.3881 231.509 10.7589 233.704 10.7589C235.889 10.7589 237.4 11.3875 238.376 12.4275C239.361 13.478 239.938 15.0976 239.938 17.357V19.292H237.358V17.0461C237.358 15.8389 237.089 14.8059 236.416 14.0745C235.727 13.3265 234.785 13.0746 233.843 13.0746C232.901 13.0746 231.959 13.3265 231.27 14.0745C230.597 14.8059 230.327 15.8389 230.327 17.0461V33.3668C230.327 34.5732 230.597 35.6024 231.277 36.3265C231.97 37.0641 232.913 37.2995 233.843 37.2995C234.772 37.2995 235.716 37.0641 236.409 36.3265C237.089 35.6024 237.358 34.5733 237.358 33.3668V30.0523H239.938Z" fill="#444444" stroke="#444444" stroke-width="1.99764"/>
<path d="M247.534 13.4244H243.465L243.475 11.1087H256.464V13.4244H252.389H251.391V14.4232V39.3239H248.533V14.4232V13.4244H247.534Z" fill="#444444" stroke="#444444" stroke-width="1.99764"/>
<path d="M270.519 34.713L270.39 33.8642H269.531H263.587H262.728L262.599 34.713L261.896 39.3433H259.49L264.099 11.1087H269.494L274.084 39.3433H271.222L270.519 34.713ZM263.214 30.5735L263.038 31.7233H264.201H268.878H270.041L269.865 30.5735L267.527 15.2826L265.552 15.2826L263.214 30.5735Z" fill="#444444" stroke="#444444" stroke-width="1.99764"/>
<path d="M288.86 23.0693V11.1087H291.797V39.3433H288.86V27.3827V26.3838H287.862H282.353H281.354V27.3827V39.3433H278.496V11.1087H281.354V23.0693V24.0681H282.353H287.862H288.86V23.0693Z" fill="#444444" stroke="#444444" stroke-width="1.99764"/>
<path d="M297.342 11.1087H300.199V36.0288V37.0276H301.198H306.707H307.706V36.0288V11.1087H310.642V36.1065V37.1053H311.641H312.763V43.404H310.044V40.3421V39.3433H309.045H297.361L297.342 11.1087Z" fill="#444444" stroke="#444444" stroke-width="1.99764"/>
<path d="M327.175 11.1281H330.776V39.3627H328.414V19.028L326.45 18.7703L324.471 26.181L320.622 39.3433H317.396V11.1087H319.718V29.2479L321.682 29.5041L323.44 22.8825L327.175 11.1281Z" fill="#444444" stroke="#444444" stroke-width="1.99764"/>
<path d="M335.674 39.3432C335.842 38.4956 335.864 37.634 335.864 36.6698V32.0068C335.864 30.5007 336.057 29.3039 336.472 28.399C336.871 27.529 337.49 26.8953 338.455 26.4998L340.584 25.6272L338.492 24.6678C337.612 24.2638 336.988 23.6633 336.57 22.8453C336.142 22.0076 335.904 20.8904 335.904 19.4359V17.0461C335.904 14.8495 336.414 13.4217 337.315 12.5291C338.218 11.6342 339.703 11.0892 342.079 11.0892H348.392V39.3237H345.535V28.0237V27.0249H344.536H342.852C341.613 27.0249 340.469 27.3153 339.68 28.2442C338.928 29.1298 338.682 30.3913 338.682 31.8708V36.631C338.682 37.8491 338.638 38.5253 338.571 38.9751C338.551 39.114 338.528 39.2327 338.503 39.3432H335.674ZM344.556 24.6898H345.555V23.691V14.4231V13.4243H344.556H342.217C341.171 13.4243 340.208 13.721 339.551 14.5469C338.936 15.3197 338.742 16.3751 338.742 17.5318V20.5045C338.742 21.8405 339.047 22.9517 339.82 23.7127C340.591 24.4725 341.632 24.6898 342.653 24.6898H344.556Z" fill="#444444" stroke="#444444" stroke-width="1.99764"/>
</g>
</svg>
